[
   {
      "orderKey":"52665579170713",
      "amortisations":[
         {
            "key":"41364372509000",
            "orderKey":"52665579170713",
            "itemKey":"52675498960509",
            "accountKey":null,
            "accountNumber":null,
            "toTheDebitOfKey":null,
            "toTheDebitOfNumber":null,
            "nextAmortisationDueDate":"2018-12-31",
            "periodicity":{
               "unit":4,
               "number":1,
               "PeriodUnits:unit":{
                  "href":4
               },
               "_links":{
                  "curies":[
                     {
                        "name":"PeriodUnits",
                        "href":"/v2/banks/6300/codes/PeriodUnits/{rel}",
                        "templated":true
                     }
                  ]
               }
            },
            "instalment":{
               "amount":6566,
               "currency:currency":{
                  "href":"CHF"
               },
               "_links":{
                  "curies":[
                     {
                        "name":"currency",
                        "href":"/v2/banks/6300/codes/Currencies/{rel}",
                        "templated":true
                     }
                  ]
               }
            },
            "remainder":{
               "amount":418604,
               "currency:currency":{
                  "href":"CHF"
               },
               "_links":{
                  "curies":[
                     {
                        "name":"currency",
                        "href":"/v2/banks/6300/codes/Currencies/{rel}",
                        "templated":true
                     }
                  ]
               }
            },
            "sequenceNumber":99,
            "RepaymentTypes:repaymentType":{
               "href":2002
            },
            "_links":{
               "curies":[
                  {
                     "name":"RepaymentTypes",
                     "href":"/v2/banks/6300/codes/RepaymentTypes/{rel}",
                     "templated":true
                  }
               ]
            }
         }
      ]
   },
   {
      "orderKey":"59093316108491",
      "amortisations":[
         {
            "key":"43894983625924",
            "orderKey":"59093316108491",
            "itemKey":"59145084799954",
            "accountKey":null,
            "accountNumber":null,
            "toTheDebitOfKey":"40909193582547",
            "toTheDebitOfNumber":"16 8.197.112.05",
            "nextAmortisationDueDate":"2018-06-30",
            "periodicity":{
               "unit":3,
               "number":3,
               "PeriodUnits:unit":{
                  "href":3
               },
               "_links":{
                  "curies":[
                     {
                        "name":"PeriodUnits",
                        "href":"/v2/banks/6300/codes/PeriodUnits/{rel}",
                        "templated":true
                     }
                  ]
               }
            },
            "instalment":{
               "amount":1250,
               "currency:currency":{
                  "href":"CHF"
               },
               "_links":{
                  "curies":[
                     {
                        "name":"currency",
                        "href":"/v2/banks/6300/codes/Currencies/{rel}",
                        "templated":true
                     }
                  ]
               }
            },
            "remainder":{
               "amount":268750,
               "currency:currency":{
                  "href":"CHF"
               },
               "_links":{
                  "curies":[
                     {
                        "name":"currency",
                        "href":"/v2/banks/6300/codes/Currencies/{rel}",
                        "templated":true
                     }
                  ]
               }
            },
            "sequenceNumber":99,
            "RepaymentTypes:repaymentType":{
               "href":2000
            },
            "_links":{
               "curies":[
                  {
                     "name":"RepaymentTypes",
                     "href":"/v2/banks/6300/codes/RepaymentTypes/{rel}",
                     "templated":true
                  }
               ]
            }
         }
      ]
   },
   {
      "orderKey":"54530902270136",
      "amortisations":[]
   },
   {
      "orderKey":"62964341203191",
      "amortisations":[]
   },
   {
      "orderKey":"59560732583955",
      "amortisations":[]
   },
   {
      "orderKey":"63915860156330",
      "amortisations":[]
   }
]